Operation is String(3)
NumericValue is Integer(3) with Conditions {
    EndOfData is ZerosCondition()
}
Integer(1) with Conditions {
    ValidSubProgName is ValueCondition(0),
    InvalidSubprogName is ValueCondition(1)
}
